{
	"info": {
		"_postman_id": "5ab46c69-2274-44f4-bbd1-757fedbe13fa",
		"name": "task",
		"schema": "https://schema.getpostman.com/json/collection/v2.1.0/collection.json"
	},
	"item": [
		{
			"name": "delete",
			"request": {
				"method": "DELETE",
				"header": [],
				"body": {
					"mode": "raw",
					"raw": ""
				},
				"url": {
					"raw": "http://localhost:9000/outlets/5ce30bce798031602b9ec8ab",
					"protocol": "http",
					"host": [
						"localhost"
					],
					"port": "9000",
					"path": [
						"outlets",
						"5ce30bce798031602b9ec8ab"
					]
				}
			},
			"response": []
		},
		{
			"name": "edit",
			"request": {
				"method": "PUT",
				"header": [
					{
						"key": "Content-Type",
						"name": "Content-Type",
						"value": "application/json",
						"type": "text"
					}
				],
				"body": {
					"mode": "raw",
					"raw": "{  \"businessmanName\" : \"TEST\", \"shopName\" : \"SKLEP SPOŻYWCZY\", \"address\" : { \"city\" : \"GDAŃSK\", \"street\" : \"UL. KONRADA GUDERSKIEGO\", \"houseNumber\" : \"1\", \"apartmentNumber\" : \"9E\", \"description\" : \"\" }, \"type\" : \"HANDEL\", \"_class\" : \"pl.smartfactor.recruitment.mongo.document.DrinkOutlet\" }\n"
				},
				"url": {
					"raw": "http://localhost:9000/outlets/5ce30bce798031602b9ec8aa",
					"protocol": "http",
					"host": [
						"localhost"
					],
					"port": "9000",
					"path": [
						"outlets",
						"5ce30bce798031602b9ec8aa"
					]
				}
			},
			"response": []
		},
		{
			"name": "create",
			"request": {
				"method": "POST",
				"header": [
					{
						"key": "Content-Type",
						"name": "Content-Type",
						"value": "application/json",
						"type": "text"
					}
				],
				"body": {
					"mode": "raw",
					"raw": "{  \"businessmanName\" : \"New Shop Test\", \"shopName\" : \"TEst shop\", \"address\" : { \"city\" : \"GDAŃSK\", \"street\" : \"UL. KONRADA GUDERSKIEGO\", \"houseNumber\" : \"1\", \"apartmentNumber\" : \"9E\", \"description\" : \"\" }, \"type\" : \"HANDEL\", \"_class\" : \"pl.smartfactor.recruitment.mongo.document.DrinkOutlet\" }\n"
				},
				"url": {
					"raw": "http://localhost:9000/outlets/",
					"protocol": "http",
					"host": [
						"localhost"
					],
					"port": "9000",
					"path": [
						"outlets",
						""
					]
				}
			},
			"response": []
		},
		{
			"name": "find",
			"request": {
				"method": "GET",
				"header": [],
				"body": {
					"mode": "raw",
					"raw": ""
				},
				"url": {
					"raw": "http://localhost:9000/outlets/5ce30e4e79803160c394e8d9",
					"protocol": "http",
					"host": [
						"localhost"
					],
					"port": "9000",
					"path": [
						"outlets",
						"5ce30e4e79803160c394e8d9"
					]
				}
			},
			"response": []
		}
	]
}